iter =   0, Function value: 0.000217269,  Residual: 0.015191 
iter =   1, Function value: 0.000122689,  Residual: 0.0105167 
iter =   2, Function value: 8.50979e-05,  Residual: 0.0079303 
Vec Object: 1 MPI processes
  type: seq
0.686851
1.58614
0.679708
